lab0/combinational_gates_muxed.vcd
$date
   Wed Apr 05 10:33:38 2017
$end
$version
  P.68d
$end
$timescale
  1ps
$end
$scope module combinational_gates_muxed_tb $end
$scope module UUT $end
$var wire 1 ! sw [4] $end
$var wire 1 " sw [3] $end
$var wire 1 # sw [2] $end
$var wire 1 $ sw [1] $end
$var wire 1 % sw [0] $end
$var wire 1 & nand_out $end
$var wire 1 ' and_out $end
$var wire 1 ( nor_out $end
$var wire 1 ) or_out $end
$var wire 1 * xor_out $end
$var wire 1 + xnor_out $end
$var wire 1 , buff_out $end
$var wire 1 - not_out $end
$var wire 1 . MuxIn [7] $end
$var wire 1 / MuxIn [6] $end
$var wire 1 0 MuxIn [5] $end
$var wire 1 1 MuxIn [4] $end
$var wire 1 2 MuxIn [3] $end
$var wire 1 3 MuxIn [2] $end
$var wire 1 4 MuxIn [1] $end
$var wire 1 5 MuxIn [0] $end
$var wire 1 6 SelectIn [2] $end
$var wire 1 7 SelectIn [1] $end
$var wire 1 8 SelectIn [0] $end
$var reg 1 9 led $end
$upscope $end
$upscope $end
$enddefinitions $end
#0
$dumpvars
04
13
02
01
10
0/
19
1.
08
07
06
0%
0$
0#
0"
0!
1&
0'
1(
0)
0*
1+
0,
1-
15
$end
#5000
03
12
11
00
1/
0.
1%
0(
1)
1*
0+
1,
0-
#10000
0/
1.
0%
1$
0,
1-
#15000
14
01
10
1/
09
0.
1%
0&
1'
0*
1+
1,
0-
05
#20000
04
13
02
0/
1.
18
0%
0$
1#
1&
0'
1(
0)
0,
1-
15
#25000
03
12
11
00
1/
0.
1%
0(
1)
1*
0+
1,
0-
#30000
0/
1.
0%
1$
0,
1-
#35000
14
01
10
1/
19
0.
1%
0&
1'
0*
1+
1,
0-
05
#40000
04
13
02
0/
1.
08
17
0%
0$
0#
1"
1&
0'
1(
0)
0,
1-
15
#45000
03
12
11
00
1/
09
0.
1%
0(
1)
1*
0+
1,
0-
#50000
0/
1.
0%
1$
0,
1-
#55000
14
01
10
1/
0.
1%
0&
1'
0*
1+
1,
0-
05
#60000
04
13
02
0/
1.
18
0%
0$
1#
1&
0'
1(
0)
0,
1-
15
#65000
03
12
11
00
1/
19
0.
1%
0(
1)
1*
0+
1,
0-
#70000
0/
1.
0%
1$
0,
1-
#75000
14
01
10
1/
0.
1%
0&
1'
0*
1+
1,
0-
05
#80000
04
13
02
0/
09
1.
08
07
16
0%
0$
0#
0"
1!
1&
0'
1(
0)
0,
1-
15
#85000
03
12
11
00
1/
19
0.
1%
0(
1)
1*
0+
1,
0-
#90000
0/
1.
0%
1$
0,
1-
#95000
14
01
10
1/
09
0.
1%
0&
1'
0*
1+
1,
0-
05
#100000
04
13
02
0/
19
1.
18
0%
0$
1#
1&
0'
1(
0)
0,
1-
15
#105000
03
12
11
00
1/
09
0.
1%
0(
1)
1*
0+
1,
0-
#110000
0/
1.
0%
1$
0,
1-
#115000
14
01
10
1/
19
0.
1%
0&
1'
0*
1+
1,
0-
05
#120000
04
13
02
0/
09
1.
08
17
0%
0$
0#
1"
1&
0'
1(
0)
0,
1-
15
#125000
03
12
11
00
1/
19
0.
1%
0(
1)
1*
0+
1,
0-
#130000
0/
09
1.
0%
1$
0,
1-
#135000
14
01
10
1/
19
0.
1%
0&
1'
0*
1+
1,
0-
05
#140000
04
13
02
0/
1.
18
0%
0$
1#
1&
0'
1(
0)
0,
1-
15
#145000
03
12
11
00
1/
09
0.
1%
0(
1)
1*
0+
1,
0-
#150000
0/
19
1.
0%
1$
0,
1-
#155000
14
01
10
1/
09
0.
1%
0&
1'
0*
1+
1,
0-
05
